{
    "name": "IceC IoT node",
    "keywords": "icec, iot, node, sensor, actuator, control, manage",
    "description": "Helper functions and classes to manage IoT nodes that provides an IceC interface.",
    "authors":
    [
	{
	    "name": "Oscar Acena",
	    "email": "oscar.acena@uclm.es",
	    "maintainer": true
	},
	{
            "name": "Arco Research Group (UCLM)",
            "url": "https://bitbucket.org/arco_group/iot.node/"
	}
    ],
    "version": "0.20191003-1",
    "downloadUrl": "https://bitbucket.org/arco_group/iot-node/downloads/icec-iot-node-0.20191003-1.zip",
    "frameworks": "*",
    "platforms": "atmelavr,espressif8266"
}
